{
    "background-color": "#000000",
    "badge-color": "#353535",
    "bold-color": "#FFFFFF",
    "comment": "",
    "cursor-background-color": "#000000",
    "cursor-foreground-color": "#FFFFFF",
    "foreground-color": "#439ECF",
    "highlight-background-color": "#000000",
    "highlight-foreground-color": "#FFFFFF",
    "name": "palanthis",
    "palette": [
        "#353535",
        "#E64569",
        "#89D287",
        "#DAB752",
        "#439ECF",
        "#D961DC",
        "#64AAAF",
        "#B3B3B3",
        "#535353",
        "#E4859A",
        "#A2CCA1",
        "#E1E387",
        "#6FBBE2",
        "#E586E7",
        "#96DCDA",
        "#DEDEDE"
    ],
    "use-badge-color": true,
    "use-bold-color": false,
    "use-cursor-color": false,
    "use-highlight-color": false,
    "use-theme-colors": false
}